…
Chapter 9: Data Analysis
========================

``` r
ec2
#> # A tibble: 12 x 11
#>   month `2006` `2007` `2008` `2009` `2010` `2011` `2012` `2013` `2014`
#>   <dbl>  <dbl>  <dbl>  <dbl>  <dbl>  <dbl>  <dbl>  <dbl>  <dbl>  <dbl>
#> 1     1    8.6    8.3    9     10.7   20     21.6   21     16.2   15.9
#> 2     2    9.1    8.5    8.7   11.7   19.9   21.1   19.8   17.5   16.2
#> 3     3    8.7    9.1    8.7   12.3   20.4   21.5   19.2   17.7   15.9
#> 4     4    8.4    8.6    9.4   13.1   22.1   20.9   19.1   17.1   15.6
#> 5     5    8.5    8.2    7.9   14.2   22.3   21.6   19.9   17     14.5
#> 6     6    7.3    7.7    9     17.2   25.2   22.3   20.1   16.6   13.2
#> # ... with 6 more rows, and 1 more variable: `2015` <dbl>
```

### Gather

`gather()` has four main arguments:

-   `data`: the dataset to translate.

-   `key` & `value`: the key is the name of the variable that will be created from the column names, and the value is the name of the variable that will be created from the cell values.

-   `...`: which variables to gather. You can specify individually, `A, B, C, D`, or as a range `A:D`. Alternatively, you can specify which columns are *not* to be gathered with `-`: `-E, -F`.

``` r
gather(ec2, key = year, value = unemp, `2006`:`2015`)
#> # A tibble: 120 x 3
#>   month year  unemp
#>   <dbl> <chr> <dbl>
#> 1     1 2006    8.6
#> 2     2 2006    9.1
#> 3     3 2006    8.7
#> 4     4 2006    8.4
#> 5     5 2006    8.5
#> 6     6 2006    7.3
#> # ... with 114 more rows
```

Alternatively, we could gather all columns except `month`:

``` r
gather(ec2, key = year, value = unemp, -month)
```

To be most useful, we can provide two extra arguments:

``` r
economics_2 <- gather(ec2, year, rate, `2006`:`2015`, 
  convert = TRUE, na.rm = TRUE)
economics_2
#> # A tibble: 112 x 3
#>   month  year  rate
#> * <dbl> <int> <dbl>
#> 1     1  2006   8.6
#> 2     2  2006   9.1
#> 3     3  2006   8.7
#> 4     4  2006   8.4
#> 5     5  2006   8.5
#> 6     6  2006   7.3
#> # ... with 106 more rows
```
…
