…
``` r
#   person           treatment response
#   <chr>                <dbl>    <dbl>
# 1 Derrick Whitmore         1        7
# 2 Derrick Whitmore         2       10
# 3 Derrick Whitmore         3        9
# 4 Katherine Burke          1        4
```

### Case Study

``` r
who
# A tibble: 7,240 x 60
#    country     iso2  iso3   year new_sp_m014 new_sp_m1524 new_sp_m2534 new_sp_m3544 new_sp_m4554
#    <chr>       <chr> <chr> <int>       <int>        <int>        <int>        <int>        <int>
#  1 Afghanistan AF    AFG    1980          NA           NA           NA           NA           NA
#  2 Afghanistan AF    AFG    1981          NA           NA           NA           NA           NA
#  3 Afghanistan AF    AFG    1982          NA           NA           NA           NA           NA
#  4 Afghanistan AF    AFG    1983          NA           NA           NA           NA           NA
#  5 Afghanistan AF    AFG    1984          NA           NA           NA           NA           NA
#  6 Afghanistan AF    AFG    1985          NA           NA           NA           NA           NA
#  7 Afghanistan AF    AFG    1986          NA           NA           NA           NA           NA
#  8 Afghanistan AF    AFG    1987          NA           NA           NA           NA           NA
#  9 Afghanistan AF    AFG    1988          NA           NA           NA           NA           NA
# 10 Afghanistan AF    AFG    1989          NA           NA           NA           NA           NA
# ... with 7,230 more rows, and 51 more variables: new_sp_m5564 <int>, new_sp_m65 <int>,
#   new_sp_f014 <int>, new_sp_f1524 <int>, new_sp_f2534 <int>, new_sp_f3544 <int>, new_sp_f4554 <int>,
#   new_sp_f5564 <int>, new_sp_f65 <int>, new_sn_m014 <int>, new_sn_m1524 <int>, new_sn_m2534 <int>,
#   new_sn_m3544 <int>, new_sn_m4554 <int>, new_sn_m5564 <int>, new_sn_m65 <int>, new_sn_f014 <int>,
#   new_sn_f1524 <int>, new_sn_f2534 <int>, new_sn_f3544 <int>, new_sn_f4554 <int>, new_sn_f5564 <int>,
#   new_sn_f65 <int>, new_ep_m014 <int>, new_ep_m1524 <int>, new_ep_m2534 <int>, new_ep_m3544 <int>,
#   new_ep_m4554 <int>, new_ep_m5564 <int>, new_ep_m65 <int>, new_ep_f014 <int>, new_ep_f1524 <int>,
#   new_ep_f2534 <int>, new_ep_f3544 <int>, new_ep_f4554 <int>, new_ep_f5564 <int>, new_ep_f65 <int>,
#   newrel_m014 <int>, newrel_m1524 <int>, newrel_m2534 <int>, newrel_m3544 <int>, newrel_m4554 <int>,
#   newrel_m5564 <int>, newrel_m65 <int>, newrel_f014 <int>, newrel_f1524 <int>, newrel_f2534 <int>,
#   newrel_f3544 <int>, newrel_f4554 <int>, newrel_f5564 <int>, newrel_f65 <int>
```

``` r
who %>%
  gather(code, value, new_sp_m014:newrel_f65, na.rm = TRUE) %>% 
  mutate(code = stringr::str_replace(code, "newrel", "new_rel")) %>%
  separate(code, c("new", "var", "sexage")) %>%
  select(-new, -iso2, -iso3) %>%
  separate(sexage, c("sex", "age"), sep = 1)
```

``` r
# A tibble: 76,046 x 6
#    country      year var   sex   age   value
#    <chr>       <int> <chr> <chr> <chr> <int>
#  1 Afghanistan  1997 sp    m     014       0
#  2 Afghanistan  1998 sp    m     014      30
#  3 Afghanistan  1999 sp    m     014       8
#  4 Afghanistan  2000 sp    m     014      52
#  5 Afghanistan  2001 sp    m     014     129
#  6 Afghanistan  2002 sp    m     014      90
#  7 Afghanistan  2003 sp    m     014     127
#  8 Afghanistan  2004 sp    m     014     139
#  9 Afghanistan  2005 sp    m     014     151
# 10 Afghanistan  2006 sp    m     014     193
# ... with 76,036 more rows
```
…
